-----//-----
giraffe
hello
privet
volvo
-----//-----
hello
giraffe
volvo
privet
-----//-----
privet
hello
volvo
giraffe
-----//-----
giraffe
hello
privet
volvo
-----//-----
privet
giraffe
hello
volvo
